MSK
…
## Loading required package: sqldf

## Loading required package: gsubfn

## Loading required package: proto

## Loading required package: RSQLite

#Loading the MSKAnalysisExercise.xlsx file into patient 
patient= read_excel('MSKAnalysisExercise.xlsx')
patient

## # A tibble: 5,757 x 11
##    PATIENT_ID PATIENT_CONDITI~ INSURANCE_TYPE   AGE SEX  
##         <dbl> <chr>            <chr>          <dbl> <chr>
##  1    4591553 Uncommon Cold    BlueSword/Blu~    31 M    
##  2    4607440 TV Personality ~ Medifix           48 F    
##  3    4590430 TV Personality ~ Medifix           42 M    
##  4    4619481 Saturday Night ~ Self Insured      22 M    
##  5    4610862 Uncommon Cold    Self Insured      32 M    
##  6    4611713 TV Personality ~ Medifix           72 F    
##  7    4620093 Uncommon Cold    ConglomoHealth    41 F    
##  8    4610599 TV Personality ~ BlueSword/Blu~    69 F    
##  9    4584716 TV Personality ~ ConglomoHealth    66 F    
## 10    4600824 TV Personality ~ Medifix           58 F    
## # ... with 5,747 more rows, and 6 more variables: VISIT_DATE <dttm>,
## #   PT_SCHEDULED_APPT <dttm>, PT_ARRIVE_TIME <dttm>, PT_START_TIME <dttm>,
## #   PT_END_TIME <dttm>, PROVIDER_NAME <chr>
…
